0 SNES Function norm 8.32828 
    0 KSP Residual norm 3.6223 
    1 KSP Residual norm 1.15448 
    2 KSP Residual norm 0.628856 
    3 KSP Residual norm 0.405193 
    4 KSP Residual norm 0.272268 
    5 KSP Residual norm 0.20921 
    6 KSP Residual norm 0.141233 
    7 KSP Residual norm 0.0968541 
    8 KSP Residual norm 0.0680646 
    9 KSP Residual norm 0.0433227 
   10 KSP Residual norm 0.0197842 
   11 KSP Residual norm 0.00555165 
   12 KSP Residual norm 0.00235779 
   13 KSP Residual norm 0.000710465 
   14 KSP Residual norm 0.000218962 
   15 KSP Residual norm 7.53819e-05 
   16 KSP Residual norm 4.15597e-05 
   17 KSP Residual norm 2.18421e-05 
   18 KSP Residual norm 1.25618e-05 
   19 KSP Residual norm 5.36932e-06 
   20 KSP Residual norm 3.36911e-06 
   21 KSP Residual norm 1.84179e-06 
   22 KSP Residual norm 5.74003e-07 
   23 KSP Residual norm 2.49014e-07 
   24 KSP Residual norm 1.03574e-07 
   25 KSP Residual norm 3.81443e-08 
   26 KSP Residual norm 1.44738e-08 
   27 KSP Residual norm 5.69696e-09 
   28 KSP Residual norm 2.13298e-09 
  Linear solve converged due to CONVERGED_RTOL iterations 28
  1 SNES Function norm 7.43973e-09 
Nonlinear solve converged due to CONVERGED_FNORM_RELATIVE iterations 1
SNES Object: 1 MPI processes
  type: newtonls
  maximum iterations=50, maximum function evaluations=10000
  tolerances: relative=1e-08, absolute=1e-50, solution=1e-08
  total number of linear solver iterations=28
  total number of function evaluations=2
  norm schedule ALWAYS
  SNESLineSearch Object: 1 MPI processes
    type: bt
      interpolation: cubic
      alpha=1.000000e-04
    maxstep=1.000000e+08, minlambda=1.000000e-12
    tolerances: relative=1.000000e-08, absolute=1.000000e-15, lambda=1.000000e-08
    maximum iterations=40
  KSP Object: 1 MPI processes
    type: gmres
      GMRES: restart=100, using Classical (unmodified) Gram-Schmidt Orthogonalization with no iterative refinement
      GMRES: happy breakdown tolerance 1e-30
    maximum iterations=10000, initial guess is zero
    tolerances:  relative=1e-09, absolute=1e-50, divergence=10000.
    left preconditioning
    using PRECONDITIONED norm type for convergence test
  PC Object: 1 MPI processes
    type: asm
      Additive Schwarz: total subdomain blocks = 4, amount of overlap = 1
      Additive Schwarz: restriction/interpolation type - RESTRICT
      Local solve is same for all blocks, in the following KSP and PC objects:
      KSP Object: (sub_) 1 MPI processes
        type: preonly
        maximum iterations=10000, initial guess is zero
        tolerances:  relative=1e-05, absolute=1e-50, divergence=10000.
        left preconditioning
        using NONE norm type for convergence test
      PC Object: (sub_) 1 MPI processes
        type: sor
          SOR: type = local_symmetric, iterations = 1, local iterations = 1, omega = 1.
        linear system matrix = precond matrix:
        Mat Object: 1 MPI processes
          type: seqaij
          rows=69, cols=69
          total: nonzeros=415, allocated nonzeros=415
          total number of mallocs used during MatSetValues calls =0
            not using I-node routines
    linear system matrix = precond matrix:
    Mat Object: 1 MPI processes
      type: seqaij
      rows=225, cols=225
      total: nonzeros=1457, allocated nonzeros=1457
      total number of mallocs used during MatSetValues calls =0
        not using I-node routines
Number of SNES iterations = 1
L_2 Error: 0.00131794